5 Measures of Performance – Data Mining
…
# Combine predicted probabilities with true labels for tidymodels
rf_results <- test_data %>%
  select(species) %>%
  bind_cols(as.data.frame(rf_prob))
rf_results

# A tibble: 101 × 4
   species Adelie Chinstrap Gentoo
 * <fct>    <dbl>     <dbl>  <dbl>
 1 Adelie   0.978     0.022      0
 2 Adelie   0.924     0.076      0
 3 Adelie   0.99      0.01       0
 4 Adelie   0.976     0.024      0
 5 Adelie   0.972     0.028      0
 6 Adelie   0.994     0.006      0
 7 Adelie   0.994     0.006      0
 8 Adelie   0.964     0.036      0
 9 Adelie   0.994     0.006      0
10 Adelie   0.984     0.016      0
# ℹ 91 more rows

# Compute ROC curves
# roc_curve() for multiclass expects:
# truth column and all class probability columns
roc_data <- rf_results %>%
  roc_curve(truth = species, Adelie, Chinstrap, Gentoo) 
roc_data

# A tibble: 129 × 4
   .level .threshold specificity sensitivity
   <chr>       <dbl>       <dbl>       <dbl>
 1 Adelie   -Inf           0               1
 2 Adelie      0           0               1
 3 Adelie      0.002       0.456           1
 4 Adelie      0.004       0.526           1
 5 Adelie      0.006       0.561           1
 6 Adelie      0.012       0.579           1
 7 Adelie      0.014       0.596           1
 8 Adelie      0.016       0.614           1
 9 Adelie      0.018       0.649           1
10 Adelie      0.022       0.667           1
# ℹ 119 more rows
…
